ImageName,Platform,Threads,Kernels,Iterations,Time
Bluehills.png,OpenMP,2,2,20,0.021494
ImageName,Platform,Threads,Kernels,Iterations,Time
Bluehills.png,OpenMP,2,2,20,0.022845
Bluehills.png,OpenMP,2,2,20,0.023230
Bluehills.png,OpenMP,2,2,20,0.023180
